[Start Session 2018-10-26 00:15:03.1029 BazarApp.exe 1.0.0.0 DE40W350]
2018-10-26 00:15:03.0829|1|DEBUG|BazarApp.Models.PointOfSellService|.ctor: POS Service Started
2018-10-26 00:15:03.1781|1|DEBUG|BazarApp.ViewModels.PointOfSellViewModel|DeleteAllCommandHandler: All Items deleted
[End Session]
